<svg xmlns="http://www.w3.org/2000/svg" fill-rule="evenodd" stroke-linejoin="round" stroke-miterlimit="2" clip-rule="evenodd" viewBox="0 0 856 601">
  <defs/>
  <!-- podcast -->
  <g fill-rule="nonzero">
    <path d="M591 600h8v-20h4c7 0 12-5 12-12v-6c0-7-5-12-12-12h-12v50zm8-27v-16h4c3 0 4 2 4 5v6c0 3-1 5-4 5h-4zM639 601c8 0 12-5 12-12v-27c0-8-4-12-12-12-7 0-12 4-12 12v27c0 7 5 12 12 12zm0-7c-3 0-4-2-4-5v-27c0-4 1-5 4-5s5 1 5 5v27c0 3-2 5-5 5zM666 600h12c7 0 12-5 12-12v-26c0-7-5-12-12-12h-12v50zm8-7v-36h4c3 0 4 2 4 5v26c0 3-1 5-4 5h-4zM716 601c7 0 12-5 12-12v-7h-8v7c0 3-2 5-4 5-3 0-5-2-5-5v-28c0-2 2-4 5-4 2 0 4 1 4 4v6h8v-6c0-7-5-11-12-11s-12 4-12 11v28c0 7 5 12 12 12zM758 600h7l-8-50h-10l-8 50h7l2-11h8l2 11zm-9-18l3-21 3 21h-6zM790 601c7 0 12-5 12-12 0-6-2-10-9-17-5-5-7-7-7-11 0-3 1-4 4-4s4 2 4 6v1l7-1v-1c0-8-4-12-11-12s-11 4-11 12c0 5 2 9 9 16 6 6 7 8 7 11s-2 5-5 5-5-3-5-6v-2l-7 1v2c0 7 5 12 12 12zM806 557h8v43h8v-43h8v-7h-24v7z"/>
  </g>

  <!-- shadow text -->
  <g fill-rule="nonzero">
    <path fill="#2f8ccc" d="M184 107h27l-27 171h-25l-14-93-14 93h-24L78 107h27l14 92 12-92h27l13 92 13-92zM258 206v72h-26V107h26v73h31v-73h25v171h-25v-72h-31zM369 206l-34-99h28l19 61 19-61h28l-34 99v72h-26v-72z"/>
    <path d="M492 133h-27v-26h80v26h-27v145h-26V133zM591 206v72h-26V107h26v73h31v-73h25v171h-25v-72h-31zM670 278V107h73v26h-47v47h35v25h-35v47h47v26h-73zM795 206l-34-99h28l19 61 19-61h29l-35 99v72h-26v-72zM176 466c0 13-5 26-14 35s-22 15-35 15H79V310h48c13 0 26 5 35 14s14 22 14 35v107zm-66 19h18c5 0 10-2 13-6 3-3 5-7 5-12V359c0-4-2-9-5-12-3-4-8-6-13-6h-18v144zM203 310h31v206h-31zM360 466c0 13-5 26-15 35-9 9-21 15-34 15h-49V310h49c13 0 25 5 34 14 10 9 15 22 15 35v107zm-67 19h19c5 0 9-2 12-6 4-3 5-7 5-12V359c0-4-1-9-5-12-3-4-8-6-12-6h-19v144zM435 341h-33v-31h97v31h-33v175h-31V341zM555 428v88h-31V310h31v87h37v-87h31v206h-31v-88h-37zM689 468l-7 48h-33l35-206h43l34 206h-32l-8-48h-32zm16-111l-11 81h23l-12-81zM791 341h-33v-31h97v31h-33v175h-31V341z"/>
  </g>

  <!-- interstitial text -->
  <g fill="#fff" fill-rule="nonzero">
    <path d="M181 104h26l-26 170h-25l-14-93-14 93h-24L75 104h27l14 91 12-91h27l13 91 13-91zM255 202v72h-26V104h26v72h30v-72h26v170h-26v-72h-30zM366 203l-34-99h28l19 61 19-61h28l-34 99v71h-26v-71zM489 130h-28v-26h80v26h-27v144h-25V130zM588 202v72h-26V104h26v72h30v-72h26v170h-26v-72h-30zM667 274V104h73v26h-47v46h34v26h-34v47h47v25h-73zM792 203l-34-99h28l19 61 19-61h28l-34 99v71h-26v-71zM173 463c0 13-5 26-14 35s-22 14-35 14H75V306h49c13 0 26 5 35 15 9 9 14 22 14 35v107zm-67 19h19c5 0 9-2 13-6 3-3 5-8 5-12V356c0-5-2-9-5-13-4-3-8-5-13-5h-19v144zM200 307h31v206h-31zM356 463c1 13-5 26-14 35s-21 14-34 14h-49V306h49c13 0 25 5 34 15 9 9 15 22 14 35v107zm-66 19h19c4 0 9-2 12-6 3-3 5-8 5-12V356c0-5-2-9-5-13-3-3-8-5-12-5h-19v144zM432 337h-33v-31h97v31h-33v175h-31V337zM552 425v87h-31V306h31v88h37v-88h31v206h-31v-87h-37zM686 465l-8 47h-32l35-206h43l34 206h-32l-8-47h-32zm16-111l-11 81h23l-12-81zM788 337h-33v-31h97v31h-33v175h-31V337z"/>
  </g>

  <!-- diagonal lines -->
  <g fill-rule="nonzero">
    <path fill="#2f8ccc" d="M105 107l-6-6v3l4 3h2zM158 107l-7-6 1 3 3 3h3zM204 104l3 3h4l-7-6v3zM100 271l7 7v-4l-3-3h-4zM156 271h-3l7 7-1-4-3-3zM232 274l-3-3h-3l6 7v-4zM282 271l7 7v-4l-4-3h-3zM251 101v3l4 3h3l-7-6zM308 104l3 3h3l-6-6v3zM357 101l1 3 3 3h2l-6-6zM423 101l-1 3 3 3h5l-7-6zM363 271l6 7v-4l-3-3h-3z"/>
    <path d="M458 126l7 7v-3l-4-4h-3zM538 104l3 3h4l-7-6v3zM485 271l7 7v-4l-3-3h-4zM559 271l6 7v-4l-3-3h-3zM591 107l-7-6v3l4 3h3zM622 274l-4-3h-3l7 7v-4zM647 107l-6-6v3l3 3h3zM737 104l3 3h4l-7-6v3zM724 176l3 4h4l-7-7v3zM737 249l3 3h4l-7-7v4zM664 271l7 7v-4l-4-3h-3zM789 107l-6-6 1 3 3 3h2zM789 271l6 7v-4l-3-3h-3zM856 107l-7-6-1 3 3 3h5zM72 509l7 7v-4l-4-3h-3zM228 307l3 3h3l-6-7v4zM197 509l6 7v-4l-3-3h-3zM256 509l6 7v-4l-3-3h-3zM396 334l6 7v-3l-3-4h-3zM492 307l4 3h3l-7-7v4zM429 509l6 7v-4l-3-3h-3zM517 509l7 7v-4l-3-3h-4zM548 307l4 3h3l-7-7v4zM586 509l6 7v-4l-3-3h-3zM617 307l3 3h3l-6-7v4zM643 509l6 7 1-4-3-3h-4zM727 310l-7-7 1 4 3 3h3zM725 509h-3l7 7-1-4-3-3zM752 334l7 7v-3l-4-4h-3zM849 307l3 3h3l-6-7v4zM785 509l6 7v-4l-3-3h-3z"/>
  </g>

  <!-- main text -->
  <g fill-rule="nonzero">
    <path fill="#2f8ccc" d="M177 101h27l-26 170h-25l-15-93-13 93h-25L72 101h27l13 91 12-91h27l14 91 12-91zM251 199v72h-25V101h25v72h31v-72h26v170h-26v-72h-31zM363 200l-35-99h29l19 61 19-61h28l-35 99v71h-25v-71z"/>
    <path d="M485 126h-27v-25h80v25h-27v145h-26V126zM584 199v72h-25V101h25v72h31v-72h26v170h-26v-72h-31zM664 271V101h73v25h-47v47h34v26h-34v46h47v26h-73zM789 200l-34-99h28l19 61 19-61h28l-34 99v71h-26v-71zM170 460c0 13-5 25-15 35-9 9-21 14-34 14H72V303h49c13 0 25 5 34 15 10 9 15 21 15 34v108zm-67 18h19c5 0 9-2 12-5 4-3 5-8 5-13V353c0-5-1-10-5-13-3-3-8-5-12-5h-19v143zM197 303h31v206h-31zM353 460c0 13-5 25-14 35-9 9-22 14-35 14h-48V303h48c13 0 26 5 35 15 9 9 14 21 14 34v108zm-66 18h18c5 0 10-2 13-5s5-8 5-13V353c0-5-2-10-5-13-4-3-8-5-13-5h-18v143zM429 334h-33v-31h96v31h-32v175h-31V334zM548 422v87h-31V303h31v88h38v-88h31v206h-31v-87h-38zM683 462l-8 47h-32l35-206h42l35 206h-33l-7-47h-32zm16-112l-12 81h23l-11-81zM785 334h-33v-31h97v31h-33v175h-31V334z"/>
  </g>

  <!-- The -->
  <g>
    <path fill-rule="nonzero" d="M39 21l1 1 1 1 1 2v1a494 494 0 00-6 60v7l-1 3-1 1-3-2-2-6a51 51 0 01-2-9 142 142 0 016-57l-3 1a123 123 0 00-17 8l2 1 3 1 2 2c1 1 0 1-1 1l-5 1-5-1H7l-3-1-2-1-2-2c0-2 0-4 2-5l13-9A143 143 0 0154 8a178 178 0 0123-3l3 1 2 1 1 1-2 1-3 1-2 1-19 5-18 5z"/>
    <path fill-rule="nonzero" d="M74 58a1647 1647 0 00-11 16 54 54 0 00-4 11 1 1 0 01-1 1l-5-4-3-6-1-6v-6a255 255 0 018-58l2-5a3 3 0 014-1 4 4 0 013 2c1 4 2 7 1 11a76 76 0 01-4 25 54 54 0 01-4 11 128 128 0 000 23l1-4a93 93 0 0112-14l3-2 3-1h3l2 2v12l-1 9v12l2-1 3-4a123 123 0 007-13 299 299 0 018-14l1 2a74 74 0 01-5 12 186 186 0 01-12 22c-1 2-2 3-4 3a9 9 0 01-6-1 9 9 0 01-4-6l-1-2v-2a149 149 0 002-13l2-11h-1zM59 44l2-3 2-7a155 155 0 003-23l-2-4a482 482 0 00-5 37z"/>
    <path fill-rule="nonzero" d="M98 65l-1-9c-1-2 0-5 1-8 0-3 1-5 3-7 2-3 4-4 7-5l4 1 2 4v5l-2 4a93 93 0 01-5 6l-2 4v3c0 2 1 3 2 3h3l3-2 3-2a45 45 0 005-7l2-4 2-3 1-2 2-2 1-1v2l-1 4a63 63 0 01-5 9 49 49 0 01-7 10c-1 2-3 3-5 3-2 1-5 2-8 1s-4-4-5-7zm11-24l-3 4c-1 2-2 3-1 5l3-4 1-5z"/>
  </g>
</svg>
